{
	"name": "{{PROJECT_NAME}}",
	"components": [
		{
			"type":"job",
			"flavor":"pyspark",
			"name":"{{COMPONENT_NAME_1}}",
			"description": "Relevant description",
			"base_image": "Docker Image Name"
		},
		{
			"type":"job",
			"flavor":"python",
			"name":"{{COMPONENT_NAME_2}}",
			"description": "Relevant description",
			"base_image": "Docker Image Name"
		},
		{
			"name": "{{COMPONENT_NAME_3}}",
			"action_type": "delete"
		}
	]
}
